{
  "module": {
    "name": "vvs",
    "version": "",
    "description": "Zeigt die aktuellen Abfahrszeiten für eine definierte Haltestelle im VVS Gebiet an.",
    "module_url": "https://glancr.de/module/mobilitaet/verkehrsbetriebe/",
    "download_url": "https://api.glancr.de/update/moduleZips/vvs-.zip",
    "category": "mobilitaet",
    "last_update": ""
  },
  "creator": {
    "name": "Mr. Robot",
    "contact": "kontakt@glancr.de",
    "website": "https://glancr.de",
    "profile": "https://glancr.de"
  }
}
